<?xml version="1.0" encoding="utf-8"?>
<!-- Generator: Adobe Illustrator 19.1.0, SVG Export Plug-In . SVG Version: 6.00 Build 0)  -->
<svg version="1.1" id="_x34_K" xmlns="http://www.w3.org/2000/svg" xmlns:xlink="http://www.w3.org/1999/xlink" x="0px" y="0px"
	 viewBox="-292 391 27 12" style="enable-background:new -292 391 27 12;" xml:space="preserve">
<style type="text/css">
	.st0{enable-background:new    ;}
	.st1{fill:#00ADEF;}
</style>
<g class="st0">
	<path class="st1" d="M-286.5,400.6h-5.6l0.7-3l7-6h3.5l-1.4,6.2h1.6l-0.6,2.7h-1.6l-0.5,2.2h-3.5L-286.5,400.6z M-285.8,397.9
		l0.8-3.2h0l-3.5,3.2H-285.8z"/>
	<path class="st1" d="M-277.8,391.4h3.9l-0.9,3.8l0,0l4.3-3.8h5l-6,4.7l3.6,6.7h-4.3l-2.3-4.4l-1.3,1.1l-0.8,3.3h-3.9L-277.8,391.4z
		"/>
</g>
</svg>
