<?xml version="1.0" encoding="utf-8"?>
<svg version="1.1" xmlns="http://www.w3.org/2000/svg">
<title id="play-icon-title">Play</title>
<polygon class="fill" fill="#fff" points="1,0 20,10 1,20"></polygon>
</svg>