<?xml version="1.0" encoding="utf-8"?>
<!-- Generator: Adobe Illustrator 19.1.0, SVG Export Plug-In . SVG Version: 6.00 Build 0)  -->
<svg version="1.1" id="CC" xmlns="http://www.w3.org/2000/svg" xmlns:xlink="http://www.w3.org/1999/xlink" x="0px" y="0px"
	 viewBox="0 0 27 12" style="enable-background:new 0 0 27 12;" xml:space="preserve">
<style type="text/css">
	.st0{fill:#00ADEF;}
</style>
<g>
	<path class="st0" d="M12.7,7.5c-0.2,1.2-1.2,4.6-6.4,4.6c-3.6,0-5.4-2.1-5.4-5.2c0-3.7,2.5-6.8,6.8-6.8c2.8,0,5.3,1.1,5.4,4.5H9.3
		C9.4,3.6,8.8,3,7.6,3C5.5,3,4.7,5.2,4.7,6.8c0,0.9,0.2,2.4,2,2.4c1.2,0,1.9-0.8,2.1-1.8H12.7z"/>
	<path class="st0" d="M26.5,7.5c-0.2,1.2-1.2,4.6-6.4,4.6c-3.6,0-5.4-2.1-5.4-5.2c0-3.7,2.5-6.8,6.8-6.8c2.8,0,5.3,1.1,5.4,4.5h-3.7
		c0-1.1-0.5-1.7-1.7-1.7c-2.1,0-2.9,2.2-2.9,3.9c0,0.9,0.2,2.4,2,2.4c1.2,0,1.9-0.8,2.1-1.8H26.5z"/>
</g>
</svg>
